…
Week-block bootstrap CI (Model – Market)

# A tibble: 2 × 5
  metric         delta     lo     hi verdict
                   
1 Brier (Model… 0.0259 0.0185 0.0334 LOSE   
2 LogLoss (Mod… 0.0561 0.0396 0.0728 LOSE   

Best Bets vs Market

# A tibble: 28 × 12
   date       matchup   Side     Edge Model
                 
 1 2025-10-05 HOU @ BAL BAL ML 0.286  0.714
 2 2025-10-02 SF @ LA   SF ML  0.139  0.357
 3 2025-10-05 MIN @ CLE MIN ML 0.119  0.756
 4 2025-10-05 DAL @ NYJ DAL ML 0.0986 0.588
 5 2025-10-05 DEN @ PHI DEN ML 0.0946 0.437
 6 2025-10-06 KC @ JAX  JAX ML 0.0846 0.448
 7 2025-10-05 WAS @ LAC WAS ML 0.0642 0.481
 8 2025-10-05 DET @ CIN CIN ML 0.0561 0.239
 9 2025-10-05 MIA @ CAR MIA ML 0.0557 0.577
10 2025-10-05 NE @ BUF  NE ML  0.0312 0.265
# ℹ 18 more rows
# ℹ 7 more variables: Market ,
#   `Best Odds` , `Best Book` ,
#   `EV (1u)` ,
#   `Fair ML (Model)` ,
#   `Fair ML (Market)` ,
#   `Model Source` 
# ℹ Use `print(n = ...)` to see more rows
